<?xml version="1.0" encoding="UTF-8"?>
<!DOCTYPE svg PUBLIC "-//W3C//DTD SVG 1.1//EN" "http://www.w3.org/Graphics/SVG/1.1/DTD/svg11.dtd">
<!-- Creator: CorelDRAW 2020 (64-Bit) -->
<svg xmlns="http://www.w3.org/2000/svg" xml:space="preserve" width="8.5in" height="11in" version="1.1" style="shape-rendering:geometricPrecision; text-rendering:geometricPrecision; image-rendering:optimizeQuality; fill-rule:evenodd; clip-rule:evenodd"
viewBox="0 0 8500 11000"
 xmlns:xlink="http://www.w3.org/1999/xlink"
 xmlns:xodm="http://www.corel.com/coreldraw/odm/2003">
 <defs>
  <style type="text/css">
   <![CDATA[
    .str0 {stroke:#B3B3B3;stroke-width:6.94;stroke-miterlimit:2.61313}
    .fil0 {fill:#55CB95;fill-rule:nonzero}
   ]]>
  </style>
 </defs>
 <g id="Layer_x0020_1">
  <metadata id="CorelCorpID_0Corel-Layer"/>
  <path class="fil0 str0" d="M2847.64 1870.57c-277.59,0.33 -502.52,225.3 -502.84,502.84l0 5895.36c0.33,277.54 225.25,502.52 502.84,502.84l4681.61 0c277.54,-0.33 502.46,-225.3 502.84,-502.84l0 -5895.36c-0.38,-277.54 -225.3,-502.52 -502.84,-502.84l-4681.61 0zm4872.34 502.84l0 5895.36c-0.16,105.23 -85.5,190.62 -190.73,190.73l-4681.61 0c-105.28,-0.11 -190.62,-85.5 -190.73,-190.73l0 -5895.36c0.11,-105.23 85.45,-190.62 190.73,-190.73l4681.61 0c105.23,0.11 190.57,85.5 190.73,190.73zm0 0z"/>
  <path class="fil0" d="M5188.44 5251.73c-565.04,0 -1023.02,457.97 -1023.02,1023.02 0,565.05 457.97,1023.02 1023.02,1023.02 564.99,0 1023.02,-457.97 1023.02,-1023.02 -0.65,-564.72 -458.3,-1022.42 -1023.02,-1023.02zm0 1733.93c-392.68,0 -710.91,-318.28 -710.91,-710.91 0,-392.63 318.23,-710.91 710.91,-710.91 392.63,0 710.91,318.28 710.91,710.91 -0.49,392.41 -318.5,710.43 -710.91,710.91zm0 0z"/>
  <path class="fil0" d="M5188.44 4471.47c-995.92,0 -1803.28,807.36 -1803.28,1803.28 0,995.93 807.36,1803.29 1803.28,1803.29 995.93,0 1803.29,-807.36 1803.29,-1803.29 -1.19,-995.44 -807.85,-1802.15 -1803.29,-1803.28zm0 3294.46c-823.56,0 -1491.18,-667.62 -1491.18,-1491.18 0,-823.56 667.62,-1491.18 1491.18,-1491.18 823.51,0 1491.18,667.62 1491.18,1491.18 -0.98,823.13 -668.05,1490.2 -1491.18,1491.18zm0 0z"/>
  <path class="fil0" d="M3541.21 3257.72l2150.07 0c86.15,0 156.06,-69.9 156.06,-156.06 0,-86.16 -69.9,-156.06 -156.06,-156.06l-2150.07 0c-86.15,0 -156.06,69.9 -156.06,156.06 0,86.16 69.9,156.06 156.06,156.06l0 -0zm0 0z"/>
  <path class="fil0" d="M6689.38 2685.52c-229.85,0 -416.14,186.34 -416.14,416.14 0,229.8 186.29,416.14 416.14,416.14 229.8,0 416.14,-186.34 416.14,-416.14 -0.27,-229.74 -186.4,-415.87 -416.14,-416.14zm0 520.18c-57.44,0 -104.04,-46.6 -104.04,-104.04 0,-57.44 46.6,-104.04 104.04,-104.04 57.44,0 104.04,46.6 104.04,104.04 -0.11,57.44 -46.6,103.98 -104.04,104.04zm0 0z"/>
 </g>
</svg>
