<?xml version="1.0" encoding="UTF-8"?>
<!DOCTYPE svg PUBLIC "-//W3C//DTD SVG 1.1//EN" "http://www.w3.org/Graphics/SVG/1.1/DTD/svg11.dtd">
<!-- Creator: CorelDRAW 2020 (64-Bit) -->
<svg xmlns="http://www.w3.org/2000/svg" xml:space="preserve" width="8.5in" height="11in" version="1.1" style="shape-rendering:geometricPrecision; text-rendering:geometricPrecision; image-rendering:optimizeQuality; fill-rule:evenodd; clip-rule:evenodd"
viewBox="0 0 8500 11000"
 xmlns:xlink="http://www.w3.org/1999/xlink"
 xmlns:xodm="http://www.corel.com/coreldraw/odm/2003">
 <defs>
  <style type="text/css">
   <![CDATA[
    .fil0 {fill:#55CB95;fill-rule:nonzero}
   ]]>
  </style>
 </defs>
 <g id="Layer_x0020_1">
  <metadata id="CorelCorpID_0Corel-Layer"/>
  <path class="fil0" d="M6062.15 7891.9l-2656.25 0c-733.37,-0 -1328.12,-594.75 -1328.12,-1328.13l-0 -265.62c0,-1320.09 1070.55,-2390.63 2390.63,-2390.63l531.25 0c1320.08,0 2390.63,1070.54 2390.63,2390.62l0 265.63c0,733.38 -594.75,1328.13 -1328.13,1328.13l0 0zm-1593.75 -3453.13c-1026.73,-0 -1859.37,832.64 -1859.37,1859.37l0 265.63c0,440.03 356.85,796.87 796.87,796.87l2656.25 0c440.03,-0 796.87,-356.85 796.87,-796.88l0 -265.62c0,-1026.73 -832.64,-1859.38 -1859.37,-1859.38l-531.25 0z"/>
  <path class="fil0" d="M4734.02 3641.89c-880.05,0 -1593.75,-713.69 -1593.75,-1593.75 0,-880.06 713.7,-1593.75 1593.75,-1593.75 880.06,0 1593.75,713.7 1593.75,1593.75 0,880.06 -713.7,1593.75 -1593.75,1593.75l0 -0zm0 -2656.25c-586.7,0 -1062.5,475.8 -1062.5,1062.5 0,586.7 475.8,1062.5 1062.5,1062.5 586.7,0 1062.5,-475.8 1062.5,-1062.5 0,-586.7 -475.8,-1062.5 -1062.5,-1062.5z"/>
 </g>
</svg>
